$PMTK011,MTKGPS*08
$PMTK010,001*2E
$PSIMONE,U,0,D000105T235942.295,90.000000,0.000000,137.00,0.00,0.00,0,,99.99,99.99,99.99,,0,0,,,,999999.0,100000000.0,[0]*12
$PMTK011,MTKGPS*08
$PMTK010,002*2D
$PSIMONE,U,0,D000105T235943.094,90.000000,0.000000,137.00,0.00,0.00,0,,99.99,99.99,99.99,,0,0,,,,999999.0,100000000.0,[1510873856]*22
$GNGGA,235943.094,,,,,0,0,,,M,,M,,*51
$GPGSA,A,1,,,,,,,,,,,,,,,*1E
$GLGSA,A,1,,,,,,,,,,,,,,,*02
$GPGSV,1,1,00*79
$GLGSV,1,1,00*65
$GNRMC,235943.094,V,,,,,0.00,0.00,050180,,,N*58
$GNVTG,0.00,T,,M,0.00,N,0.00,K,N*2C
$PSIMONE,U,0,D000105T235944.095,90.000000,0.000000,137.00,0.00,0.00,0,,99.99,99.99,99.99,,1,0,,,,999999.0,100000000.0,[1510873856]*25
$GNGGA,235944.095,,,,,0,0,,,M,,M,,*57
$GPGSA,A,1,,,,,,,,,,,,,,,*1E
$GLGSA,A,1,,,,,,,,,,,,,,,*02
$GPGSV,1,1,01,23,,,33*79
$GLGSV,1,1,00*65
$GNRMC,235944.095,V,,,,,0.00,0.00,050180,,,N*5E
$GNVTG,0.00,T,,M,0.00,N,0.00,K,N*2C
$PSIMONE,U,0,D000105T235945.095,90.000000,0.000000,137.00,0.00,0.00,0,,99.99,99.99,99.99,,1,0,,,,999999.0,100000000.0,[1510873856]*24
$GNGGA,235945.095,,,,,0,0,,,M,,M,,*56
$GPGSA,A,1,,,,,,,,,,,,,,,*1E
$GLGSA,A,1,,,,,,,,,,,,,,,*02
$GPGSV,1,1,01,23,,,33*79
$GLGSV,1,1,00*65
$GNRMC,235945.095,V,,,,,0.00,0.00,050180,,,N*5F
$GNVTG,0.00,T,,M,0.00,N,0.00,K,N*2C
$PSIMONE,U,0,D000105T235946.094,90.000000,0.000000,137.00,0.00,0.00,0,,99.99,99.99,99.99,,1,0,,,,999999.0,100000000.0,[1510873856]*26
$GNGGA,235946.094,,,,,0,0,,,M,,M,,*54
$GPGSA,A,1,,,,,,,,,,,,,,,*1E
$GLGSA,A,1,,,,,,,,,,,,,,,*02
$GPGSV,1,1,01,23,,,33*79
$GLGSV,1,1,00*65
$GNRMC,235946.094,V,,,,,0.00,0.00,050180,,,N*5D
$GNVTG,0.00,T,,M,0.00,N,0.00,K,N*2C
$PSIMONE,U,0,D000105T235947.094,90.000000,0.000000,137.00,0.00,0.00,0,,99.99,99.99,99.99,,1,0,,,,999999.0,100000000.0,[1510873856]*27
$GNGGA,235947.094,,,,,0,0,,,M,,M,,*55
$GPGSA,A,1,,,,,,,,,,,,,,,*1E
$GLGSA,A,1,,,,,,,,,,,,,,,*02
$GPGSV,1,1,01,23,,,34*7E
$GLGSV,1,1,00*65
$GNRMC,235947.094,V,,,,,0.00,0.00,050180,,,N*5C
$GNVTG,0.00,T,,M,0.00,N,0.00,K,N*2C
$PSIMONE,U,0,D000105T235948.094,90.000000,0.000000,137.00,0.00,0.00,0,,99.99,99.99,99.99,,1,0,,,,999999.0,100000000.0,[1510873856]*28
$GNGGA,235948.094,,,,,0,0,,,M,,M,,*5A
$GPGSA,A,1,,,,,,,,,,,,,,,*1E
$GLGSA,A,1,,,,,,,,,,,,,,,*02
$GPGSV,1,1,01,23,,,34*7E
$GLGSV,1,1,00*65
$GNRMC,235948.094,V,,,,,0.00,0.00,050180,,,N*53
$GNVTG,0.00,T,,M,0.00,N,0.00,K,N*2C
$PSIMONE,U,0,D000105T235949.094,90.000000,0.000000,137.00,0.00,0.00,0,,99.99,99.99,99.99,,1,0,,,,999999.0,100000000.0,[1510873856]*29
$GNGGA,235949.094,,,,,0,0,,,M,,M,,*5B
$GPGSA,A,1,,,,,,,,,,,,,,,*1E
$GLGSA,A,1,,,,,,,,,,,,,,,*02
$GPGSV,1,1,01,23,,,34*7E
$GLGSV,1,1,00*65
$GNRMC,235949.094,V,,,,,0.00,0.00,050180,,,N*52
$GNVTG,0.00,T,,M,0.00,N,0.00,K,N*2C
$PSIMONE,U,0,D000105T235950.095,90.000000,0.000000,137.00,0.00,0.00,0,,99.99,99.99,99.99,,2,0,,,,999999.0,100000000.0,[1510873856]*23
$GNGGA,235950.095,,,,,0,0,,,M,,M,,*52
$GPGSA,A,1,,,,,,,,,,,,,,,*1E
$GLGSA,A,1,,,,,,,,,,,,,,,*02
$GPGSV,1,1,02,23,,,34,05,,,26*7C
$GLGSV,1,1,01,65,,,*67
$GNRMC,235950.095,V,,,,,0.00,0.00,050180,,,N*5B
$GNVTG,0.00,T,,M,0.00,N,0.00,K,N*2C
$PSIMONE,U,0,D000105T235951.095,90.000000,0.000000,137.00,0.00,0.00,0,,99.99,99.99,99.99,,2,0,,,,999999.0,100000000.0,[1510873856]*22
$GNGGA,235951.095,,,,,0,0,,,M,,M,,*53
$GPGSA,A,1,,,,,,,,,,,,,,,*1E
$GLGSA,A,1,,,,,,,,,,,,,,,*02
$GPGSV,1,1,02,23,,,34,05,,,26*7C
$GLGSV,1,1,01,65,,,*67
$GNRMC,235951.095,V,,,,,0.00,0.00,050180,,,N*5A
$GNVTG,0.00,T,,M,0.00,N,0.00,K,N*2C
$PSIMONE,U,0,D000105T235952.095,90.000000,0.000000,137.00,0.00,0.00,0,,99.99,99.99,99.99,,2,0,,,,999999.0,100000000.0,[1510873856]*21
$GNGGA,235952.095,,,,,0,0,,,M,,M,,*50
$GPGSA,A,1,,,,,,,,,,,,,,,*1E
$GLGSA,A,1,,,,,,,,,,,,,,,*02
$GPGSV,1,1,02,23,,,34,05,,,25*7F
$GLGSV,1,1,01,65,,,*67
$GNRMC,235952.095,V,,,,,0.00,0.00,050180,,,N*59
$GNVTG,0.00,T,,M,0.00,N,0.00,K,N*2C
$PSIMONE,U,0,D000105T235953.095,90.000000,0.000000,137.00,0.00,0.00,0,,99.99,99.99,99.99,,2,0,,,,999999.0,100000000.0,[1510873856]*20
$GNGGA,235953.095,,,,,0,0,,,M,,M,,*51
$GPGSA,A,1,,,,,,,,,,,,,,,*1E
$GLGSA,A,1,,,,,,,,,,,,,,,*02
$GPGSV,1,1,02,23,,,34,05,,,25*7F
$GLGSV,1,1,01,65,,,*67
$GNRMC,235953.095,V,,,,,0.00,0.00,050180,,,N*58
$GNVTG,0.00,T,,M,0.00,N,0.00,K,N*2C
$PSIMONE,U,0,D000105T235954.095,90.000000,0.000000,137.00,0.00,0.00,0,,99.99,99.99,99.99,,2,0,,,,999999.0,100000000.0,[1510873856]*27
$GNGGA,235954.095,,,,,0,0,,,M,,M,,*56
$GPGSA,A,1,,,,,,,,,,,,,,,*1E
$GLGSA,A,1,,,,,,,,,,,,,,,*02
$GPGSV,1,1,02,23,,,34,05,,,26*7C
$GLGSV,1,1,01,65,,,*67
$GNRMC,235954.095,V,,,,,0.00,0.00,050180,,,N*5F
$GNVTG,0.00,T,,M,0.00,N,0.00,K,N*2C
$PSIMONE,U,0,D000105T235955.095,90.000000,0.000000,137.00,0.00,0.00,0,,99.99,99.99,99.99,,3,0,,,,999999.0,100000000.0,[1510873856]*27
$GNGGA,235955.095,,,,,0,0,,,M,,M,,*57
$GPGSA,A,1,,,,,,,,,,,,,,,*1E
$GLGSA,A,1,,,,,,,,,,,,,,,*02
$GPGSV,1,1,03,23,,,34,05,,,26,27,,,30*7B
$GLGSV,1,1,01,65,,,*67
$GNRMC,235955.095,V,,,,,0.00,0.00,050180,,,N*5E
$GNVTG,0.00,T,,M,0.00,N,0.00,K,N*2C
$PSIMONE,U,0,D000105T235956.095,90.000000,0.000000,137.00,0.00,0.00,0,,99.99,99.99,99.99,,3,0,,,,999999.0,100000000.0,[1510873856]*24
$GNGGA,235956.095,,,,,0,0,,,M,,M,,*54
$GPGSA,A,1,,,,,,,,,,,,,,,*1E
$GLGSA,A,1,,,,,,,,,,,,,,,*02
$GPGSV,1,1,03,23,,,34,05,,,26,27,,,33*78
$GLGSV,1,1,01,65,,,*67
$GNRMC,235956.095,V,,,,,0.00,0.00,050180,,,N*5D
$GNVTG,0.00,T,,M,0.00,N,0.00,K,N*2C
$PSIMONE,U,0,D000105T235957.095,90.000000,0.000000,137.00,0.00,0.00,0,,99.99,99.99,99.99,,3,0,,,,999999.0,100000000.0,[1510873856]*25
$GNGGA,235957.095,,,,,0,0,,,M,,M,,*55
$GPGSA,A,1,,,,,,,,,,,,,,,*1E
$GLGSA,A,1,,,,,,,,,,,,,,,*02
$GPGSV,1,1,03,23,,,34,05,,,26,27,,,33*78
$GLGSV,1,1,01,65,,,*67
$GNRMC,235957.095,V,,,,,0.00,0.00,050180,,,N*5C
$GNVTG,0.00,T,,M,0.00,N,0.00,K,N*2C
$PSIMONE,U,0,D000105T235957.525,90.000000,0.000000,137.00,0.00,0.00,0,,99.99,99.99,99.99,,3,0,,,,999999.0,100000000.0,[1510873856]*2B
$GNGGA,235957.525,,,,,0,0,,,M,,M,,*5B
$GPGSA,A,1,,,,,,,,,,,,,,,*1E
$GLGSA,A,1,,,,,,,,,,,,,,,*02
$GPGSV,1,1,03,23,,,33,05,,,26,27,,,34*78
$GLGSV,1,1,01,65,,,*67
$GNRMC,235957.525,V,,,,,0.00,0.00,050180,,,N*52
$GNVTG,0.00,T,,M,0.00,N,0.00,K,N*2C
$PSIMONE,U,0,D000105T235958.524,90.000000,0.000000,137.00,0.00,0.00,0,,99.99,99.99,99.99,,3,0,,,,999999.0,100000000.0,[1510873856]*25
$GNGGA,235958.524,,,,,0,0,,,M,,M,,*55
$GPGSA,A,1,,,,,,,,,,,,,,,*1E
$GLGSA,A,1,,,,,,,,,,,,,,,*02
$GPGSV,1,1,03,23,,,33,05,,,26,27,,,34*78
$GLGSV,1,1,01,65,,,*67
$GNRMC,235958.524,V,,,,,0.00,0.00,050180,,,N*5C
$GNVTG,0.00,T,,M,0.00,N,0.00,K,N*2C
$PSIMONE,U,0,D000108T141808.090,90.000000,0.000000,137.00,0.00,0.00,0,,99.99,99.99,99.99,,4,0,,,,999999.0,100000000.0,[953267968]*18
$GNGGA,141808.090,,,,,0,0,,,M,,M,,*5B
$GPGSA,A,1,,,,,,,,,,,,,,,*1E
$GLGSA,A,1,,,,,,,,,,,,,,,*02
$GPGSV,1,1,03,23,,,33,05,,,25,27,,,34*7B
$GLGSV,1,1,01,69,,,35*6D
$GNRMC,141808.090,V,,,,,0.00,0.00,080180,,,N*5F
$GNVTG,0.00,T,,M,0.00,N,0.00,K,N*2C
$PSIMONE,U,0,D000108T141809.090,90.000000,0.000000,137.00,0.00,0.00,0,,99.99,99.99,99.99,,4,0,,,,999999.0,100000000.0,[953267968]*19
$GNGGA,141809.090,,,,,0,0,,,M,,M,,*5A
$GPGSA,A,1,,,,,,,,,,,,,,,*1E
$GLGSA,A,1,,,,,,,,,,,,,,,*02
$GPGSV,1,1,03,23,,,33,05,,,25,27,,,34*7B
$GLGSV,1,1,01,69,,,35*6D
$GNRMC,141809.090,V,,,,,0.00,0.00,080180,,,N*5E
$GNVTG,0.00,T,,M,0.00,N,0.00,K,N*2C
$PSIMONE,U,0,D191126T141810.090,90.000000,0.000000,137.00,0.00,0.00,0,,99.99,99.99,99.99,,4,0,,,,999999.0,100000000.0,[953267968]*14
$GNGGA,141810.090,,,,,0,0,,,M,,M,,*52
$GPGSA,A,1,,,,,,,,,,,,,,,*1E
$GLGSA,A,1,,,,,,,,,,,,,,,*02
$GPGSV,1,1,03,23,,,33,05,,,26,27,,,34*78
$GLGSV,1,1,01,69,,,35*6D
$GNRMC,141810.090,V,,,,,0.00,0.00,261119,,,N*5B
$GNVTG,0.00,T,,M,0.00,N,0.00,K,N*2C
$PSIMONE,U,0,D191126T141811.090,90.000000,0.000000,137.00,0.00,0.00,0,,99.99,99.99,99.99,,4,0,,,,999999.0,100000000.0,[953267968]*15
$GNGGA,141811.090,,,,,0,0,,,M,,M,,*53
$GPGSA,A,1,,,,,,,,,,,,,,,*1E
$GLGSA,A,1,,,,,,,,,,,,,,,*02
$GPGSV,1,1,03,23,,,33,05,,,27,27,,,34*79
$GLGSV,1,1,01,69,,,35*6D
$GNRMC,141811.090,V,,,,,0.00,0.00,261119,,,N*5A
$GNVTG,0.00,T,,M,0.00,N,0.00,K,N*2C
$PSIMONE,U,0,D191126T141812.086,90.000000,0.000000,137.00,0.00,0.00,0,,99.99,99.99,99.99,,4,0,,,,999999.0,100000000.0,[953267968]*11
$GNGGA,141812.086,,,,,0,0,,,M,,M,,*57
$GPGSA,A,1,,,,,,,,,,,,,,,*1E
$GLGSA,A,1,,,,,,,,,,,,,,,*02
$GPGSV,1,1,03,23,,,32,05,,,27,27,,,34*78
$GLGSV,1,1,01,69,,,35*6D
$GNRMC,141812.086,V,,,,,0.00,0.00,261119,,,N*5E
$GNVTG,0.00,T,,M,0.00,N,0.00,K,N*2C
$PSIMONE,U,0,D191126T141813.086,90.000000,0.000000,137.00,0.00,0.00,0,,99.99,99.99,99.99,,4,0,,,,999999.0,100000000.0,[953267968]*10
$GNGGA,141813.086,,,,,0,0,,,M,,M,,*56
$GPGSA,A,1,,,,,,,,,,,,,,,*1E
$GLGSA,A,1,,,,,,,,,,,,,,,*02
$GPGSV,1,1,03,23,,,32,05,,,27,27,,,34*78
$GLGSV,1,1,01,69,,,35*6D
$GNRMC,141813.086,V,,,,,0.00,0.00,261119,,,N*5F
$GNVTG,0.00,T,,M,0.00,N,0.00,K,N*2C
$PSIMONE,U,0,D191126T141814.086,90.000000,0.000000,137.00,0.00,0.00,0,,99.99,99.99,99.99,,4,0,,,,999999.0,100000000.0,[953267968]*17
$GNGGA,141814.086,,,,,0,0,,,M,,M,,*51
$GPGSA,A,1,,,,,,,,,,,,,,,*1E
$GLGSA,A,1,,,,,,,,,,,,,,,*02
$GPGSV,1,1,03,23,,,32,05,,,27,27,,,34*78
$GLGSV,1,1,01,69,,,35*6D
$GNRMC,141814.086,V,,,,,0.00,0.00,261119,,,N*58
$GNVTG,0.00,T,,M,0.00,N,0.00,K,N*2C
$PSIMONE,U,0,D191126T141815.086,90.000000,0.000000,137.00,0.00,0.00,0,,99.99,99.99,99.99,,4,0,,,,999999.0,100000000.0,[953267968]*16
$GNGGA,141815.086,,,,,0,0,,,M,,M,,*50
$GPGSA,A,1,,,,,,,,,,,,,,,*1E
$GLGSA,A,1,,,,,,,,,,,,,,,*02
$GPGSV,1,1,03,23,,,32,05,,,27,27,,,34*78
$GLGSV,1,1,01,69,,,35*6D
$GNRMC,141815.086,V,,,,,0.00,0.00,261119,,,N*59
$GNVTG,0.00,T,,M,0.00,N,0.00,K,N*2C
$PSIMONE,U,0,D191126T141816.086,90.000000,0.000000,137.00,0.00,0.00,0,,99.99,99.99,99.99,,4,0,,,,999999.0,100000000.0,[953267968]*15
$GNGGA,141816.086,,,,,0,0,,,M,,M,,*53
$GPGSA,A,1,,,,,,,,,,,,,,,*1E
$GLGSA,A,1,,,,,,,,,,,,,,,*02
$GPGSV,1,1,03,23,,,32,05,,,28,27,,,34*77
$GLGSV,1,1,01,69,,,35*6D
$GNRMC,141816.086,V,,,,,0.00,0.00,261119,,,N*5A
$GNVTG,0.00,T,,M,0.00,N,0.00,K,N*2C
$PSIMONE,U,0,D191126T141817.086,90.000000,0.000000,137.00,0.00,0.00,0,,99.99,99.99,99.99,,4,0,,,,999999.0,100000000.0,[953267968]*14
$GNGGA,141817.086,,,,,0,0,,,M,,M,,*52
$GPGSA,A,1,,,,,,,,,,,,,,,*1E
$GLGSA,A,1,,,,,,,,,,,,,,,*02
$GPGSV,1,1,03,23,,,32,05,,,29,27,,,33*71
$GLGSV,1,1,01,69,,,35*6D
$GNRMC,141817.086,V,,,,,0.00,0.00,261119,,,N*5B
$GNVTG,0.00,T,,M,0.00,N,0.00,K,N*2C
$PSIMONE,U,0,D191126T141818.086,90.000000,0.000000,137.00,0.00,0.00,0,,99.99,99.99,99.99,,5,0,,,,999999.0,100000000.0,[953267968]*1A
$GNGGA,141818.086,,,,,0,0,,,M,,M,,*5D
$GPGSA,A,1,,,,,,,,,,,,,,,*1E
$GLGSA,A,1,,,,,,,,,,,,,,,*02
$GPGSV,1,1,04,23,,,32,05,,,29,27,,,33,09,,,28*75
$GLGSV,1,1,01,69,,,35*6D
$GNRMC,141818.086,V,,,,,0.00,0.00,261119,,,N*54
$GNVTG,0.00,T,,M,0.00,N,0.00,K,N*2C
$PSIMONE,U,0,D191126T141819.086,90.000000,0.000000,137.00,0.00,0.00,0,,99.99,99.99,99.99,,5,0,,,,999999.0,100000000.0,[953267968]*1B
$GNGGA,141819.086,,,,,0,0,,,M,,M,,*5C
$GPGSA,A,1,,,,,,,,,,,,,,,*1E
$GLGSA,A,1,,,,,,,,,,,,,,,*02
$GPGSV,1,1,04,23,,,32,05,,,29,27,,,33,09,,,29*74
$GLGSV,1,1,01,69,,,34*6C
$GNRMC,141819.086,V,,,,,0.00,0.00,261119,,,N*55
$GNVTG,0.00,T,,M,0.00,N,0.00,K,N*2C
$PSIMONE,U,0,D191126T141820.086,90.000000,0.000000,137.00,0.00,0.00,0,,99.99,99.99,99.99,,5,0,,,,999999.0,100000000.0,[953267968]*11
$GNGGA,141820.086,,,,,0,0,,,M,,M,,*56
$GPGSA,A,1,,,,,,,,,,,,,,,*1E
$GLGSA,A,1,,,,,,,,,,,,,,,*02
$GPGSV,1,1,04,23,,,32,05,,,30,27,,,33,09,,,29*7C
$GLGSV,1,1,01,69,,,34*6C
$GNRMC,141820.086,V,,,,,0.00,0.00,261119,,,N*5F
$GNVTG,0.00,T,,M,0.00,N,0.00,K,N*2C
$PSIMONE,U,0,D191126T141821.086,90.000000,0.000000,137.00,0.00,0.00,0,,99.99,99.99,99.99,,5,0,,,,999999.0,100000000.0,[953267968]*10
$GNGGA,141821.086,,,,,0,0,,,M,,M,,*57
$GPGSA,A,1,,,,,,,,,,,,,,,*1E
$GLGSA,A,1,,,,,,,,,,,,,,,*02
$GPGSV,1,1,04,23,,,31,05,,,30,27,,,32,09,,,29*7E
$GLGSV,1,1,01,69,,,34*6C
$GNRMC,141821.086,V,,,,,0.00,0.00,261119,,,N*5E
$GNVTG,0.00,T,,M,0.00,N,0.00,K,N*2C
$PSIMONE,U,0,D191126T141822.086,90.000000,0.000000,137.00,0.00,0.00,0,,99.99,99.99,99.99,,5,0,,,,999999.0,100000000.0,[953267968]*13
$GNGGA,141822.086,,,,,0,0,,,M,,M,,*54
$GPGSA,A,1,,,,,,,,,,,,,,,*1E
$GLGSA,A,1,,,,,,,,,,,,,,,*02
$GPGSV,1,1,04,23,,,31,05,,,30,27,,,32,09,,,30*76
$GLGSV,1,1,01,69,,,34*6C
$GNRMC,141822.086,V,,,,,0.00,0.00,261119,,,N*5D
$GNVTG,0.00,T,,M,0.00,N,0.00,K,N*2C
$PSIMONE,U,0,D191126T141823.086,90.000000,0.000000,137.00,0.00,0.00,0,,99.99,99.99,99.99,,5,0,,,,999999.0,100000000.0,[953267968]*12
$GNGGA,141823.086,,,,,0,0,,,M,,M,,*55
$GPGSA,A,1,,,,,,,,,,,,,,,*1E
$GLGSA,A,1,,,,,,,,,,,,,,,*02
$GPGSV,1,1,04,23,,,31,05,,,30,27,,,32,09,,,29*7E
$GLGSV,1,1,01,69,,,33*6B
$GNRMC,141823.086,V,,,,,0.00,0.00,261119,,,N*5C
$GNVTG,0.00,T,,M,0.00,N,0.00,K,N*2C
$PSIMONE,U,0,D191126T141824.081,90.000000,0.000000,137.00,0.00,0.00,0,,99.99,99.99,99.99,,5,0,,,,999999.0,100000000.0,[953267968]*12
$GNGGA,141824.081,,,,,0,0,,,M,,M,,*55
$GPGSA,A,1,,,,,,,,,,,,,,,*1E
$GLGSA,A,1,,,,,,,,,,,,,,,*02
$GPGSV,1,1,04,23,,,31,05,,,30,27,,,32,09,,,29*7E
$GLGSV,1,1,01,69,,,33*6B
$GNRMC,141824.081,V,,,,,0.00,0.00,261119,,,N*5C
$GNVTG,0.00,T,,M,0.00,N,0.00,K,N*2C
$PSIMONE,U,0,D191126T141824.301,90.000000,0.000000,137.00,0.00,0.00,0,,99.99,99.99,99.99,,5,0,,,,999999.0,100000000.0,[953267968]*19
$GNGGA,141824.301,,,,,0,0,,,M,,M,,*5E
$GPGSA,A,1,,,,,,,,,,,,,,,*1E
$GLGSA,A,1,,,,,,,,,,,,,,,*02
$GPGSV,1,1,04,23,,,31,05,,,30,27,,,32,09,,,29*7E
$GLGSV,1,1,01,69,,,33*6B
$GNRMC,141824.301,V,,,,,0.00,0.00,261119,,,N*57
$GNVTG,0.00,T,,M,0.00,N,0.00,K,N*2C
$PSIMONE,U,0,D191126T141825.301,90.000000,0.000000,137.00,0.00,0.00,0,,99.99,99.99,99.99,,5,0,,,,999999.0,100000000.0,[953267968]*18
$GNGGA,141825.301,,,,,0,0,,,M,,M,,*5F
$GPGSA,A,1,,,,,,,,,,,,,,,*1E
$GLGSA,A,1,,,,,,,,,,,,,,,*02
$GPGSV,1,1,04,23,,,31,05,,,30,27,,,32,09,,,29*7E
$GLGSV,1,1,01,69,,,34*6C
$GNRMC,141825.301,V,,,,,0.00,0.00,261119,,,N*56
$GNVTG,0.00,T,,M,0.00,N,0.00,K,N*2C
$PSIMONE,U,0,D191126T141826.301,90.000000,0.000000,137.00,0.00,0.00,0,,99.99,99.99,99.99,,5,0,,,,999999.0,100000000.0,[953267968]*1B
$GNGGA,141826.301,,,,,0,0,,,M,,M,,*5C
$GPGSA,A,1,,,,,,,,,,,,,,,*1E
$GLGSA,A,1,,,,,,,,,,,,,,,*02
$GPGSV,1,1,04,23,,,31,05,,,30,27,,,32,09,,,29*7E
$GLGSV,1,1,01,69,,,34*6C
$GNRMC,141826.301,V,,,,,0.00,0.00,261119,,,N*55
$GNVTG,0.00,T,,M,0.00,N,0.00,K,N*2C
$PSIMONE,U,0,D191126T141827.301,90.000000,0.000000,137.00,0.00,0.00,0,,99.99,99.99,99.99,,5,0,,,,999999.0,100000000.0,[953267968]*1A
$GNGGA,141827.301,,,,,0,0,,,M,,M,,*5D
$GPGSA,A,1,,,,,,,,,,,,,,,*1E
$GLGSA,A,1,,,,,,,,,,,,,,,*02
$GPGSV,1,1,04,23,,,31,05,,,30,27,,,32,09,,,29*7E
$GLGSV,1,1,01,69,,,33*6B
$GNRMC,141827.301,V,,,,,0.00,0.00,261119,,,N*54
$GNVTG,0.00,T,,M,0.00,N,0.00,K,N*2C
$PSIMONE,U,0,D191126T141828.301,90.000000,0.000000,137.00,0.00,0.00,0,,99.99,99.99,99.99,,5,0,,,,999999.0,100000000.0,[953267968]*15
$GNGGA,141828.301,,,,,0,0,,,M,,M,,*52
$GPGSA,A,1,,,,,,,,,,,,,,,*1E
$GLGSA,A,1,,,,,,,,,,,,,,,*02
$GPGSV,1,1,04,23,,,31,05,,,30,27,,,32,09,,,28*7F
$GLGSV,1,1,01,69,,,33*6B
$GNRMC,141828.301,V,,,,,0.00,0.00,261119,,,N*5B
$GNVTG,0.00,T,,M,0.00,N,0.00,K,N*2C
$PSIMONE,U,0,D191126T141829.301,90.000000,0.000000,137.00,0.00,0.00,0,,99.99,99.99,99.99,,5,0,,,,999999.0,100000000.0,[953267968]*14
$GNGGA,141829.301,,,,,0,0,,,M,,M,,*53
$GPGSA,A,1,,,,,,,,,,,,,,,*1E
$GLGSA,A,1,,,,,,,,,,,,,,,*02
$GPGSV,1,1,04,23,,,31,05,,,30,27,,,32,09,,,28*7F
$GLGSV,1,1,01,69,,,34*6C
$GNRMC,141829.301,V,,,,,0.00,0.00,261119,,,N*5A
$GNVTG,0.00,T,,M,0.00,N,0.00,K,N*2C
$PSIMONE,U,0,D191126T141830.098,48.674677,59.669826,169.40,0.00,0.00,0,,2.38,2.56,0.93,,5,3,,,,999999.0,100000000.0,[953267968]*1E
$GNGGA,141830.098,,,,,0,0,,,M,,M,,*58
$GPGSA,A,1,,,,,,,,,,,,,,,*1E
$GLGSA,A,1,,,,,,,,,,,,,,,*02
$GPGSV,1,1,04,23,,,31,05,,,30,27,,,32,09,,,27*70
$GLGSV,1,1,01,69,,,34*6C
$GNRMC,141830.098,V,,,,,0.00,0.00,261119,,,N*51
$GNVTG,0.00,T,,M,0.00,N,0.00,K,N*2C
$PSIMONE,U,0,D191126T141831.102,55.034832,61.346622,161.73,0.00,0.00,0,,1.36,1.67,0.97,,5,3,,,,999999.0,100000000.0,[953267968]*15
$GNGGA,141831.102,,,,,0,0,,,M,,M,,*5B
$GPGSA,A,1,,,,,,,,,,,,,,,*1E
$GLGSA,A,1,,,,,,,,,,,,,,,*02
$GPGSV,1,1,04,23,,,30,05,,,30,27,,,32,09,,,27*71
$GLGSV,1,1,01,69,,,34*6C
$GNRMC,141831.102,V,,,,,0.00,0.00,261119,,,N*52
$GNVTG,0.00,T,,M,0.00,N,0.00,K,N*2C
$PSIMONE,U,0,D191126T141832.102,55.154434,61.371817,176.32,0.06,0.00,0,,1.40,1.70,0.97,,5,3,,,,999999.0,100000000.0,[953267968]*15
$GNGGA,141832.102,,,,,0,0,,,M,,M,,*58
$GPGSA,A,1,,,,,,,,,,,,,,,*1E
$GLGSA,A,1,,,,,,,,,,,,,,,*02
$GPGSV,1,1,04,23,,,30,05,,,30,27,,,32,09,,,26*70
$GLGSV,1,1,01,69,,,34*6C
$GNRMC,141832.102,V,,,,,0.03,0.00,261119,,,N*52
$GNVTG,0.00,T,,M,0.03,N,0.06,K,N*29
$PSIMONE,U,0,D191126T141833.102,55.154480,61.371789,161.48,0.09,0.00,0,,1.40,1.70,0.97,,5,3,,,,999999.0,100000000.0,[953267968]*17
$GNGGA,141833.102,,,,,0,0,,,M,,M,,*59
$GPGSA,A,1,,,,,,,,,,,,,,,*1E
$GLGSA,A,1,,,,,,,,,,,,,,,*02
$GPGSV,1,1,04,23,,,30,05,,,30,27,,,32,09,,,26*70
$GLGSV,1,1,01,69,,,34*6C
$GNRMC,141833.102,V,,,,,0.05,0.00,261119,,,N*55
$GNVTG,0.00,T,,M,0.05,N,0.09,K,N*20
$PSIMONE,U,0,D191126T141834.102,55.154485,61.371783,161.48,0.69,0.00,0,,1.40,1.70,0.97,,5,3,,,,999999.0,100000000.0,[953267968]*19
$GNGGA,141834.102,,,,,0,0,,,M,,M,,*5E
$GPGSA,A,1,,,,,,,,,,,,,,,*1E
$GLGSA,A,1,,,,,,,,,,,,,,,*02
$GPGSV,1,1,04,23,,,30,05,,,29,27,,,32,09,,,25*7B
$GLGSV,1,1,01,69,,,35*6D
$GNRMC,141834.102,V,,,,,0.37,0.00,261119,,,N*53
$GNVTG,0.00,T,,M,0.37,N,0.69,K,N*27
$PSIMONE,U,0,D191126T141835.102,55.154485,61.371777,161.48,1.07,0.00,0,,1.40,1.70,0.97,,5,3,,,,999999.0,100000000.0,[953267968]*1A
$GNGGA,141835.102,,,,,0,0,,,M,,M,,*5F
$GPGSA,A,1,,,,,,,,,,,,,,,*1E
$GLGSA,A,1,,,,,,,,,,,,,,,*02
$GPGSV,1,1,04,23,,,30,05,,,29,27,,,32,09,,,23*7D
$GLGSV,1,1,01,69,,,35*6D
$GNRMC,141835.102,V,,,,,0.58,0.00,261119,,,N*5B
$GNVTG,0.00,T,,M,0.58,N,1.07,K,N*27
$PSIMONE,U,0,D191126T141836.102,55.154498,61.371774,161.48,1.76,193.00,0,,1.40,1.70,0.97,,5,3,,,,999999.0,100000000.0,[953267968]*1B
$GNGGA,141836.102,,,,,0,0,,,M,,M,,*5C
$GPGSA,A,1,,,,,,,,,,,,,,,*1E
$GLGSA,A,1,,,,,,,,,,,,,,,*02
$GPGSV,1,1,04,23,,,30,05,,,29,27,,,32,09,,,23*7D
$GLGSV,1,1,01,69,,,36*6E
$GNRMC,141836.102,V,,,,,0.95,193.00,261119,,,N*52
$GNVTG,193.00,T,,M,0.95,N,1.76,K,N*2B
$PSIMONE,U,0,D191126T141837.102,55.154499,61.371754,161.48,1.33,182.96,0,,1.40,1.70,0.97,,5,3,,,,999999.0,100000000.0,[953267968]*17
$GNGGA,141837.102,,,,,0,0,,,M,,M,,*5D
$GPGSA,A,1,,,,,,,,,,,,,,,*1E
$GLGSA,A,1,,,,,,,,,,,,,,,*02
$GPGSV,1,1,04,23,,,30,05,,,28,27,,,32,09,,,22*7D
$GLGSV,1,1,01,69,,,36*6E
$GNRMC,141837.102,V,,,,,0.72,182.96,261119,,,N*55
$GNVTG,182.96,T,,M,0.72,N,1.33,K,N*2C
$PSIMONE,U,0,D191126T141838.102,55.154499,61.371763,161.48,0.98,182.96,0,,1.40,1.70,0.97,,5,3,,,,999999.0,100000000.0,[953267968]*1C
$GNGGA,141838.102,,,,,0,0,,,M,,M,,*52
$GPGSA,A,1,,,,,,,,,,,,,,,*1E
$GLGSA,A,1,,,,,,,,,,,,,,,*02
$GPGSV,1,1,04,23,,,30,05,,,27,27,,,32,09,,,22*72
$GLGSV,1,1,01,69,,,35*6D
$GNRMC,141838.102,V,,,,,0.53,182.96,261119,,,N*59
$GNVTG,182.96,T,,M,0.53,N,0.98,K,N*2F
$PSIMONE,U,0,D191126T141839.102,55.154484,61.371754,161.48,1.83,186.70,0,,1.40,1.70,0.97,,5,3,,,,999999.0,100000000.0,[953267968]*12
$GNGGA,141839.102,,,,,0,0,,,M,,M,,*53
$GPGSA,A,1,,,,,,,,,,,,,,,*1E
$GLGSA,A,1,,,,,,,,,,,,,,,*02
$GPGSV,1,1,04,23,,,30,05,,,27,27,,,32,09,,,21*71
$GLGSV,1,1,01,69,,,35*6D
$GNRMC,141839.102,V,,,,,0.99,186.70,261119,,,N*52
$GNVTG,186.70,T,,M,0.99,N,1.83,K,N*2E
$PSIMONE,U,0,D191126T141840.102,55.154507,61.371732,161.48,0.74,186.70,0,,1.40,1.70,0.97,,5,3,,,,999999.0,100000000.0,[953267968]*1F
$GNGGA,141840.102,,,,,0,0,,,M,,M,,*5D
$GPGSA,A,1,,,,,,,,,,,,,,,*1E
$GLGSA,A,1,,,,,,,,,,,,,,,*02
$GPGSV,1,1,04,23,,,30,05,,,27,27,,,32,09,,,20*70
$GLGSV,1,1,01,69,,,35*6D
$GNRMC,141840.102,V,,,,,0.40,186.70,261119,,,N*58
$GNVTG,186.70,T,,M,0.40,N,0.74,K,N*23
$PSIMONE,U,0,D191126T141841.102,55.154511,61.371706,161.48,0.32,186.70,0,,1.40,1.70,0.97,,6,3,,,,999999.0,100000000.0,[953267968]*1F
$GNGGA,141841.102,,,,,0,0,,,M,,M,,*5C
$GPGSA,A,1,,,,,,,,,,,,,,,*1E
$GLGSA,A,1,,,,,,,,,,,,,,,*02
$GPGSV,2,1,05,23,,,30,05,,,26,27,,,32,09,,,20*73
$GPGSV,2,2,05,28,,,24*70
$GLGSV,1,1,01,69,,,35*6D
$GNRMC,141841.102,V,,,,,0.17,186.70,261119,,,N*5B
$GNVTG,186.70,T,,M,0.17,N,0.32,K,N*23
$PSIMONE,U,0,D191126T141842.088,55.154532,61.371691,161.48,0.26,186.70,0,,1.40,1.70,0.97,,6,3,,,,999999.0,100000000.0,[953267968]*14
$GNGGA,141842.088,,,,,0,0,,,M,,M,,*5C
$GPGSA,A,1,,,,,,,,,,,,,,,*1E
$GLGSA,A,1,,,,,,,,,,,,,,,*02
$GPGSV,2,1,05,23,,,30,05,,,26,27,,,32,09,,,20*73
$GPGSV,2,2,05,28,,,26*72
$GLGSV,1,1,01,69,,,36*6E
$GNRMC,141842.088,V,,,,,0.14,186.70,261119,,,N*58
$GNVTG,186.70,T,,M,0.14,N,0.26,K,N*25
$PSIMONE,U,0,D191126T141842.308,55.154526,61.371703,161.48,0.25,186.70,0,,1.40,1.70,0.97,,6,3,,,,999999.0,100000000.0,[953267968]*13
$GNGGA,141842.308,,,,,0,0,,,M,,M,,*57
$GPGSA,A,1,,,,,,,,,,,,,,,*1E
$GLGSA,A,1,,,,,,,,,,,,,,,*02
$GPGSV,2,1,05,23,,,30,05,,,25,27,,,32,09,,,20*70
$GPGSV,2,2,05,28,,,26*72
$GLGSV,1,1,01,69,,,36*6E
$GNRMC,141842.308,V,,,,,0.13,186.70,261119,,,N*54
$GNVTG,186.70,T,,M,0.13,N,0.25,K,N*21
$PSIMONE,U,0,D191126T141843.308,55.154548,61.371692,161.48,0.61,186.70,0,,1.40,1.70,0.97,,6,3,,,,999999.0,100000000.0,[953267968]*13
$GNGGA,141843.308,,,,,0,0,,,M,,M,,*56
$GPGSA,A,1,,,,,,,,,,,,,,,*1E
$GLGSA,A,1,,,,,,,,,,,,,,,*02
$GPGSV,2,1,05,23,,,30,05,,,25,27,,,32,09,,,21*71
$GPGSV,2,2,05,28,,,25*71
$GLGSV,1,1,01,69,,,36*6E
$GNRMC,141843.308,V,,,,,0.33,186.70,261119,,,N*57
$GNVTG,186.70,T,,M,0.33,N,0.61,K,N*23
$PSIMONE,U,0,D191126T141844.308,55.154546,61.371709,161.48,0.13,186.70,0,,1.40,1.70,0.97,,6,3,,,,999999.0,100000000.0,[953267968]*1C
$GNGGA,141844.308,,,,,0,0,,,M,,M,,*51
$GPGSA,A,1,,,,,,,,,,,,,,,*1E
$GLGSA,A,1,,,,,,,,,,,,,,,*02
$GPGSV,2,1,05,23,,,30,05,,,25,27,,,32,09,,,21*71
$GPGSV,2,2,05,28,,,25*71
$GLGSV,1,1,01,69,,,36*6E
$GNRMC,141844.308,V,,,,,0.07,186.70,261119,,,N*57
$GNVTG,186.70,T,,M,0.07,N,0.13,K,N*21
$PSIMONE,U,0,D191126T141845.308,55.154565,61.371690,161.48,0.14,186.70,0,,1.40,1.70,0.97,,6,3,,,,999999.0,100000000.0,[953267968]*1A
$GNGGA,141845.308,,,,,0,0,,,M,,M,,*50
$GPGSA,A,1,,,,,,,,,,,,,,,*1E
$GLGSA,A,1,,,,,,,,,,,,,,,*02
$GPGSV,2,1,05,23,,,29,05,,,25,27,,,32,09,,,22*7A
$GPGSV,2,2,05,28,,,25*71
$GLGSV,1,1,01,69,,,36*6E
$GNRMC,141845.308,V,,,,,0.08,186.70,261119,,,N*59
$GNVTG,186.70,T,,M,0.08,N,0.14,K,N*29
$PSIMONE,U,0,D191126T141846.308,55.154568,61.371663,161.48,1.10,120.09,0,,1.40,1.70,0.97,,6,3,,,,999999.0,100000000.0,[953267968]*1F
$GNGGA,141846.308,,,,,0,0,,,M,,M,,*53
$GPGSA,A,1,,,,,,,,,,,,,,,*1E
$GLGSA,A,1,,,,,,,,,,,,,,,*02
$GPGSV,2,1,05,23,,,29,05,,,25,27,,,32,09,,,23*7B
$GPGSV,2,2,05,28,,,25*71
$GLGSV,1,1,01,69,,,36*6E
$GNRMC,141846.308,V,,,,,0.59,120.09,261119,,,N*5C
$GNVTG,120.09,T,,M,0.59,N,1.10,K,N*2A
$PSIMONE,U,0,D191126T141847.308,55.154569,61.371681,161.48,0.87,120.09,0,,1.40,1.70,0.97,,6,3,,,,999999.0,100000000.0,[953267968]*1C
$GNGGA,141847.308,,,,,0,0,,,M,,M,,*52
$GPGSA,A,1,,,,,,,,,,,,,,,*1E
$GLGSA,A,1,,,,,,,,,,,,,,,*02
$GPGSV,2,1,05,23,,,29,05,,,25,27,,,32,09,,,26*7E
$GPGSV,2,2,05,28,,,25*71
$GLGSV,1,1,01,69,,,36*6E
$GNRMC,141847.308,V,,,,,0.47,120.09,261119,,,N*52
$GNVTG,120.09,T,,M,0.47,N,0.87,K,N*2A
$PSIMONE,U,2,D191126T141848.088,55.154421,61.371600,227.10,0.87,120.09,2,,1.23,1.55,0.94,,6,4,,,,20.5,60.8,[0]*25
$GNGGA,141848.088,5509.2652,N,06122.2960,E,1,5,1.23,227.1,M,-11.5,M,,*69
$GPGSA,A,3,23,05,27,09,,,,,,,,,1.55,1.23,0.94*06
$GLGSA,A,3,69,,,,,,,,,,,,1.55,1.23,0.94*1D
$GPGSV,2,1,06,09,38,163,26,27,34,065,32,05,27,294,25,40,27,176,*77
$GPGSV,2,2,06,23,13,151,29,28,,,25*4F
$GLGSV,1,1,02,69,50,300,36,70,05,341,*6F
$GNRMC,141848.088,A,5509.2652,N,06122.2960,E,0.47,120.09,261119,,,A*75
$GNVTG,120.09,T,,M,0.47,N,0.87,K,A*25
$PSIMONE,U,2,D191126T141850.000,55.154415,61.371601,229.74,1.03,120.09,2,,1.23,1.55,0.94,,7,4,,,,17.9,53.2,[0]*28
$GNGGA,141850.000,5509.2649,N,06122.2961,E,1,5,1.23,229.7,M,-11.5,M,,*63
$GPGSA,A,3,23,05,27,09,,,,,,,,,1.55,1.23,0.94*06
$GLGSA,A,3,69,,,,,,,,,,,,1.55,1.23,0.94*1D
$GPGSV,2,1,07,09,38,163,27,27,34,065,32,05,27,294,26,40,27,176,*74
$GPGSV,2,2,07,23,13,151,28,28,,,25,30,,,27*49
$GLGSV,1,1,02,69,50,300,36,70,05,341,*6F
$GNRMC,141850.000,A,5509.2649,N,06122.2961,E,0.56,120.09,261119,,,A*77
$GNVTG,120.09,T,,M,0.56,N,1.03,K,A*28
$PSIMONE,U,2,D191126T141851.000,55.154409,61.371604,230.99,0.95,120.09,2,,1.23,1.55,0.94,,7,4,,,,16.3,48.0,[0]*27
$GNGGA,141851.000,5509.2645,N,06122.2962,E,1,5,1.23,231.0,M,-11.5,M,,*63
$GPGSA,A,3,23,05,27,09,,,,,,,,,1.55,1.23,0.94*06
$GLGSA,A,3,69,,,,,,,,,,,,1.55,1.23,0.94*1D
$GPGSV,2,1,07,09,38,163,28,27,34,065,32,05,27,294,26,40,27,176,*7B
$GPGSV,2,2,07,23,13,151,28,28,,,25,30,,,27*49
$GLGSV,1,1,02,69,50,300,36,70,05,341,*6F
$GNRMC,141851.000,A,5509.2645,N,06122.2962,E,0.51,120.09,261119,,,A*7E
$GNVTG,120.09,T,,M,0.51,N,0.95,K,A*21
$PSIMONE,U,2,D191126T141852.000,55.154410,61.371622,231.90,2.42,62.61,2,,1.23,1.55,0.94,,7,4,,,,14.6,42.2,[0]*1E
$GNGGA,141852.000,5509.2646,N,06122.2973,E,1,5,1.23,231.9,M,-11.5,M,,*6A
$GPGSA,A,3,23,05,27,09,,,,,,,,,1.55,1.23,0.94*06
$GLGSA,A,3,69,,,,,,,,,,,,1.55,1.23,0.94*1D
$GPGSV,2,1,07,09,38,163,29,27,34,065,32,05,27,294,26,40,27,176,*7A
$GPGSV,2,2,07,23,13,151,28,28,,,25,30,,,28*46
$GLGSV,1,1,03,69,50,300,36,77,31,063,,70,05,341,*59
$GNRMC,141852.000,A,5509.2646,N,06122.2973,E,1.31,62.61,261119,,,A*40
$GNVTG,62.61,T,,M,1.31,N,2.42,K,A*17
$PSIMONE,U,2,D191126T141853.000,55.154411,61.371626,231.74,1.69,57.50,2,,1.23,1.55,0.94,,7,4,,,,13.3,38.3,[0]*10
$GNGGA,141853.000,5509.2646,N,06122.2976,E,1,5,1.23,231.7,M,-11.5,M,,*60
$GPGSA,A,3,23,05,27,09,,,,,,,,,1.55,1.23,0.94*06
$GLGSA,A,3,69,,,,,,,,,,,,1.55,1.23,0.94*1D
$GPGSV,2,1,07,09,38,163,30,27,34,065,32,05,27,294,27,40,27,176,*73
$GPGSV,2,2,07,23,13,151,28,28,,,25,30,,,28*46
$GLGSV,1,1,03,69,50,300,36,77,31,063,,70,05,341,*59
$GNRMC,141853.000,A,5509.2646,N,06122.2976,E,0.91,57.50,261119,,,A*4B
$GNVTG,57.50,T,,M,0.91,N,1.69,K,A*12
$PSIMONE,U,2,D191126T141854.000,55.154408,61.371628,232.31,1.11,41.01,2,,1.23,1.55,0.94,,7,4,,,,12.4,35.3,[0]*14
$GNGGA,141854.000,5509.2645,N,06122.2977,E,1,5,1.23,232.3,M,-11.5,M,,*62
$GPGSA,A,3,23,05,27,09,,,,,,,,,1.55,1.23,0.94*06
$GLGSA,A,3,69,,,,,,,,,,,,1.55,1.23,0.94*1D
$GPGSV,2,1,07,09,38,163,31,27,34,065,32,05,27,294,27,40,27,176,*72
$GPGSV,2,2,07,23,13,151,28,28,,,24,30,,,27*48
$GLGSV,1,1,03,69,50,300,36,77,31,063,,70,05,341,*59
$GNRMC,141854.000,A,5509.2645,N,06122.2977,E,0.60,41.01,261119,,,A*43
$GNVTG,41.01,T,,M,0.60,N,1.11,K,A*10
$PSIMONE,U,2,D191126T141855.000,55.154402,61.371628,233.46,0.60,41.01,2,,1.23,1.55,0.94,,7,4,,,,11.6,33.0,[0]*1D
$GNGGA,141855.000,5509.2641,N,06122.2977,E,1,5,1.23,233.5,M,-11.5,M,,*60
$GPGSA,A,3,23,05,27,09,,,,,,,,,1.55,1.23,0.94*06
$GLGSA,A,3,69,,,,,,,,,,,,1.55,1.23,0.94*1D
$GPGSV,2,1,07,09,38,163,31,27,34,065,32,05,27,294,27,40,27,176,*72
$GPGSV,2,2,07,23,13,151,28,28,,,24,30,,,27*48
$GLGSV,1,1,03,69,50,300,36,77,31,063,,70,05,341,*59
$GNRMC,141855.000,A,5509.2641,N,06122.2977,E,0.32,41.01,261119,,,A*41
$GNVTG,41.01,T,,M,0.32,N,0.60,K,A*10
$PSIMONE,U,2,D191126T141856.000,55.154395,61.371626,234.16,0.15,41.01,2,,1.23,1.55,0.94,,7,4,,,,11.0,31.1,[0]*1C
$GNGGA,141856.000,5509.2637,N,06122.2976,E,1,5,1.23,234.2,M,-11.5,M,,*63
$GPGSA,A,3,23,05,27,09,,,,,,,,,1.55,1.23,0.94*06
$GLGSA,A,3,69,,,,,,,,,,,,1.55,1.23,0.94*1D
$GPGSV,2,1,07,09,38,163,31,27,34,065,32,05,27,294,28,40,27,176,*7D
$GPGSV,2,2,07,23,13,151,28,28,,,23,30,,,27*4F
$GLGSV,1,1,04,78,81,350,,69,50,300,35,77,31,063,,70,05,341,*6D
$GNRMC,141856.000,A,5509.2637,N,06122.2976,E,0.08,41.01,261119,,,A*4B
$GNVTG,41.01,T,,M,0.08,N,0.15,K,A*1B
$PSIMONE,U,2,D191126T141857.000,55.154390,61.371627,235.00,0.13,41.01,2,,1.23,1.55,0.94,,7,4,,,,10.5,29.5,[0]*10
$GNGGA,141857.000,5509.2634,N,06122.2976,E,1,5,1.23,235.0,M,-11.5,M,,*62
$GPGSA,A,3,23,05,27,09,,,,,,,,,1.55,1.23,0.94*06
$GLGSA,A,3,69,,,,,,,,,,,,1.55,1.23,0.94*1D
$GPGSV,2,1,07,09,38,163,31,27,34,065,32,05,27,294,28,40,27,176,*7D
$GPGSV,2,2,07,23,13,151,28,28,,,23,30,,,27*4F
$GLGSV,1,1,04,78,81,350,,69,50,300,35,77,31,063,,70,05,341,*6D
$GNRMC,141857.000,A,5509.2634,N,06122.2976,E,0.07,41.01,261119,,,A*46
$GNVTG,41.01,T,,M,0.07,N,0.13,K,A*12
$PSIMONE,U,2,D191126T141858.000,55.154385,61.371631,235.66,0.13,41.01,2,,1.23,1.55,0.94,,7,4,,,,10.1,28.2,[0]*1E
$GNGGA,141858.000,5509.2631,N,06122.2979,E,1,5,1.23,235.7,M,-11.5,M,,*60
$GPGSA,A,3,23,05,27,09,,,,,,,,,1.55,1.23,0.94*06
$GLGSA,A,3,69,,,,,,,,,,,,1.55,1.23,0.94*1D
$GPGSV,2,1,07,09,38,163,32,27,34,065,32,05,27,294,28,44,27,174,*78
$GPGSV,2,2,07,23,13,151,28,28,,,23,30,,,27*4F
$GLGSV,1,1,04,78,81,350,,69,50,300,35,77,31,063,,70,05,341,*6D
$GNRMC,141858.000,A,5509.2631,N,06122.2979,E,0.07,41.01,261119,,,A*43
$GNVTG,41.01,T,,M,0.07,N,0.13,K,A*12
$PSIMONE,U,2,D191126T141859.000,55.154379,61.371636,236.47,0.19,41.01,2,,1.23,1.55,0.94,,7,4,,,,9.5,26.9,[0]*28
$GNGGA,141859.000,5509.2628,N,06122.2982,E,1,5,1.23,236.5,M,-11.5,M,,*6C
$GPGSA,A,3,23,05,27,09,,,,,,,,,1.55,1.23,0.94*06
$GLGSA,A,3,69,,,,,,,,,,,,1.55,1.23,0.94*1D
$GPGSV,2,1,07,09,38,163,33,27,34,065,32,05,27,294,29,44,27,174,*78
$GPGSV,2,2,07,23,13,151,28,28,,,23,30,,,27*4F
$GLGSV,1,1,04,78,81,350,,69,50,300,35,77,31,063,,70,05,341,*6D
$GNRMC,141859.000,A,5509.2628,N,06122.2982,E,0.10,41.01,261119,,,A*48
$GNVTG,41.01,T,,M,0.10,N,0.19,K,A*1E
$PSIMONE,U,2,D191126T141900.000,55.154374,61.371641,237.42,0.35,41.01,2,,1.23,1.55,0.94,,7,4,,,,9.1,25.8,[0]*24
$GNGGA,141900.000,5509.2624,N,06122.2985,E,1,5,1.23,237.4,M,-11.5,M,,*6A
$GPGSA,A,3,23,05,27,09,,,,,,,,,1.55,1.23,0.94*06
$GLGSA,A,3,69,,,,,,,,,,,,1.55,1.23,0.94*1D
$GPGSV,2,1,07,09,38,163,33,27,34,065,32,05,27,294,29,44,27,174,*78
$GPGSV,2,2,07,23,13,151,28,28,,,23,30,,,27*4F
$GLGSV,2,1,05,78,81,350,,69,50,300,35,79,35,257,,77,31,063,*63
$GLGSV,2,2,05,70,05,341,*54
$GNRMC,141900.000,A,5509.2624,N,06122.2985,E,0.19,41.01,261119,,,A*47
$GNVTG,41.01,T,,M,0.19,N,0.35,K,A*19
$PSIMONE,U,2,D191126T141901.000,55.154369,61.371642,238.01,0.30,41.01,2,,1.23,1.55,0.94,,7,4,,,,8.8,24.8,[0]*2E
$GNGGA,141901.000,5509.2622,N,06122.2985,E,1,5,1.23,238.0,M,-11.5,M,,*66
$GPGSA,A,3,23,05,27,09,,,,,,,,,1.55,1.23,0.94*06
$GLGSA,A,3,69,,,,,,,,,,,,1.55,1.23,0.94*1D
$GPGSV,2,1,07,09,38,163,33,27,34,065,32,05,27,294,29,44,27,174,*78
$GPGSV,2,2,07,23,13,151,28,28,,,23,30,,,27*4F
$GLGSV,2,1,05,78,81,350,,69,50,300,34,79,35,257,,77,31,063,*62
$GLGSV,2,2,05,70,05,341,*54
$GNRMC,141901.000,A,5509.2622,N,06122.2985,E,0.16,41.01,261119,,,A*4F
$GNVTG,41.01,T,,M,0.16,N,0.30,K,A*13
$PSIMONE,U,2,D191126T141902.000,55.154366,61.371650,238.87,0.38,41.01,2,,1.23,1.55,0.94,,7,4,,,,8.5,23.6,[0]*23
$GNGGA,141902.000,5509.2619,N,06122.2990,E,1,5,1.23,238.9,M,-11.5,M,,*60
$GPGSA,A,3,23,05,27,09,,,,,,,,,1.55,1.23,0.94*06
$GLGSA,A,3,69,,,,,,,,,,,,1.55,1.23,0.94*1D
$GPGSV,2,1,07,09,38,163,33,27,34,065,32,05,27,294,29,44,27,174,*78
$GPGSV,2,2,07,23,13,151,29,28,,,23,30,,,27*4E
$GLGSV,2,1,05,78,81,350,,69,50,300,34,79,35,257,,77,31,063,*62
$GLGSV,2,2,05,70,05,341,*54
$GNRMC,141902.000,A,5509.2619,N,06122.2990,E,0.21,41.01,261119,,,A*44
$GNVTG,41.01,T,,M,0.21,N,0.38,K,A*1F
$PSIMONE,U,2,D191126T141903.000,55.154362,61.371653,240.03,0.39,41.01,2,,1.23,1.55,0.94,,7,4,,,,8.2,22.5,[0]*22
$GNGGA,141903.000,5509.2617,N,06122.2992,E,1,5,1.23,240.0,M,-11.5,M,,*6B
$GPGSA,A,3,23,05,27,09,,,,,,,,,1.55,1.23,0.94*06
$GLGSA,A,3,69,,,,,,,,,,,,1.55,1.23,0.94*1D
$GPGSV,2,1,07,09,38,163,33,27,34,065,32,05,27,294,29,44,27,174,*78
$GPGSV,2,2,07,23,13,151,29,28,,,23,30,,,27*4E
$GLGSV,2,1,05,78,81,350,,69,50,300,34,79,35,257,,77,31,063,*62
$GLGSV,2,2,05,70,05,341,*54
$GNRMC,141903.000,A,5509.2617,N,06122.2992,E,0.21,41.01,261119,,,A*49
$GNVTG,41.01,T,,M,0.21,N,0.39,K,A*1E
$PSIMONE,U,2,D191126T141904.000,55.154360,61.371656,241.24,0.20,41.01,2,,1.23,1.55,0.94,,7,4,,,,8.0,21.6,[0]*2C
$GNGGA,141904.000,5509.2616,N,06122.2994,E,1,5,1.23,241.2,M,-11.5,M,,*68
$GPGSA,A,3,23,05,27,09,,,,,,,,,1.55,1.23,0.94*06
$GLGSA,A,3,69,,,,,,,,,,,,1.55,1.23,0.94*1D
$GPGSV,2,1,07,09,38,163,33,27,34,065,32,05,27,294,29,44,27,174,*78
$GPGSV,2,2,07,23,13,151,29,28,,,23,30,,,27*4E
$GLGSV,2,1,05,78,81,350,,69,50,300,34,79,35,257,,77,31,063,*62
$GLGSV,2,2,05,70,05,341,*54
$GNRMC,141904.000,A,5509.2616,N,06122.2994,E,0.11,41.01,261119,,,A*4A
$GNVTG,41.01,T,,M,0.11,N,0.20,K,A*15
$PSIMONE,U,2,D191126T141905.000,55.154357,61.371658,242.62,0.18,41.01,2,,1.23,1.55,0.94,,7,4,,,,7.8,21.0,[0]*2C
$GNGGA,141905.000,5509.2614,N,06122.2995,E,1,5,1.23,242.6,M,-11.5,M,,*6D
$GPGSA,A,3,23,05,27,09,,,,,,,,,1.55,1.23,0.94*06
$GLGSA,A,3,69,,,,,,,,,,,,1.55,1.23,0.94*1D
$GPGSV,2,1,07,09,38,163,33,27,34,065,32,05,27,294,29,44,27,174,*78
$GPGSV,2,2,07,23,13,151,29,28,,,22,30,,,27*4F
$GLGSV,2,1,05,78,81,350,,69,50,300,34,79,35,257,,77,31,063,*62
$GLGSV,2,2,05,70,05,341,*54
$GNRMC,141905.000,A,5509.2614,N,06122.2995,E,0.10,41.01,261119,,,A*49
$GNVTG,41.01,T,,M,0.10,N,0.18,K,A*1F
$PSIMONE,U,2,D191126T141906.000,55.154355,61.371659,243.70,0.14,41.01,2,,1.23,1.55,0.94,,7,4,,,,7.8,20.2,[0]*21
$GNGGA,141906.000,5509.2613,N,06122.2996,E,1,5,1.23,243.7,M,-11.5,M,,*6A
$GPGSA,A,3,23,05,27,09,,,,,,,,,1.55,1.23,0.94*06
$GLGSA,A,3,69,,,,,,,,,,,,1.55,1.23,0.94*1D
$GPGSV,2,1,07,09,38,163,33,27,34,065,32,05,27,294,29,44,27,174,*78
$GPGSV,2,2,07,23,13,151,29,28,,,22,30,,,27*4F
$GLGSV,2,1,05,78,81,350,,69,50,300,33,79,35,257,,77,31,063,*65
$GLGSV,2,2,05,70,05,341,*54
$GNRMC,141906.000,A,5509.2613,N,06122.2996,E,0.08,41.01,261119,,,A*47
$GNVTG,41.01,T,,M,0.08,N,0.14,K,A*1A
$PSIMONE,U,2,D191126T141907.000,55.154350,61.371662,244.68,0.06,41.01,2,,1.23,1.55,0.94,,7,4,,,,7.8,19.5,[0]*2D
$GNGGA,141907.000,5509.2610,N,06122.2997,E,1,5,1.23,244.7,M,-11.5,M,,*6E
$GPGSA,A,3,23,05,27,09,,,,,,,,,1.55,1.23,0.94*06
$GLGSA,A,3,69,,,,,,,,,,,,1.55,1.23,0.94*1D
$GPGSV,2,1,07,09,38,163,33,27,34,065,32,05,27,294,29,39,18,221,*7D
$GPGSV,2,2,07,23,13,151,29,28,,,22,30,,,27*4F
$GLGSV,2,1,05,78,81,350,,69,50,300,33,79,35,257,,77,31,063,*65
$GLGSV,2,2,05,70,05,341,*54
$GNRMC,141907.000,A,5509.2610,N,06122.2997,E,0.03,41.01,261119,,,A*4F
$GNVTG,41.01,T,,M,0.03,N,0.06,K,A*12
$PSIMONE,U,2,D191126T141908.000,55.154343,61.371666,245.66,0.30,41.01,2,,1.23,1.55,0.94,,7,4,,,,8.0,18.9,[0]*24
$GNGGA,141908.000,5509.2606,N,06122.3000,E,1,5,1.23,245.7,M,-11.5,M,,*61
$GPGSA,A,3,23,05,27,09,,,,,,,,,1.55,1.23,0.94*06
$GLGSA,A,3,69,,,,,,,,,,,,1.55,1.23,0.94*1D
$GPGSV,2,1,07,09,38,163,34,27,34,065,32,05,27,294,29,39,18,221,*7A
$GPGSV,2,2,07,23,13,151,29,28,,,22,30,,,27*4F
$GLGSV,2,1,05,78,81,350,,69,50,300,34,79,35,257,,77,31,063,*62
$GLGSV,2,2,05,70,05,341,*54
$GNRMC,141908.000,A,5509.2606,N,06122.3000,E,0.16,41.01,261119,,,A*45
$GNVTG,41.01,T,,M,0.16,N,0.30,K,A*13
$PSIMONE,U,2,D191126T141909.000,55.154333,61.371681,246.85,0.97,41.01,2,,1.29,1.61,0.96,,6,4,,,,8.3,18.4,[0]*28
$GNGGA,141909.000,5509.2600,N,06122.3008,E,1,4,1.29,246.9,M,-11.5,M,,*68
$GPGSA,A,3,23,05,27,09,,,,,,,,,1.61,1.29,0.96*09
$GLGSA,A,3,,,,,,,,,,,,,1.61,1.29,0.96*1D
$GPGSV,2,1,07,09,38,163,34,27,34,065,33,05,27,294,29,39,18,221,*7B
$GPGSV,2,2,07,23,13,151,30,28,,,22,30,,,27*47
$GLGSV,2,1,05,78,81,350,,69,50,300,,79,35,257,,77,31,063,*65
$GLGSV,2,2,05,70,05,341,*54
$GNRMC,141909.000,A,5509.2600,N,06122.3008,E,0.52,41.01,261119,,,A*4A
$GNVTG,41.01,T,,M,0.52,N,0.97,K,A*1E
$PSIMONE,U,2,D191126T141910.000,55.154321,61.371698,247.95,1.74,134.24,2,,1.29,1.61,0.96,,6,4,,,,8.6,17.8,[0]*15
$GNGGA,141910.000,5509.2592,N,06122.3019,E,1,4,1.29,248.0,M,-11.5,M,,*6F
$GPGSA,A,3,23,05,27,09,,,,,,,,,1.61,1.29,0.96*09
$GLGSA,A,3,,,,,,,,,,,,,1.61,1.29,0.96*1D
$GPGSV,2,1,07,09,38,163,34,27,34,065,33,05,27,294,29,39,18,221,*7B
$GPGSV,2,2,07,23,13,151,30,28,,,21,30,,,27*44
$GLGSV,2,1,05,78,81,350,,69,50,300,,79,35,257,,77,31,063,*65
$GLGSV,2,2,05,70,05,341,*54
$GNRMC,141910.000,A,5509.2592,N,06122.3019,E,0.94,134.24,261119,,,A*74
$GNVTG,134.24,T,,M,0.94,N,1.74,K,A*2C
$PSIMONE,U,2,D191126T141911.000,55.154314,61.371690,250.98,1.89,140.39,2,,1.23,1.55,0.94,,7,4,,,,8.9,17.2,[0]*17
$GNGGA,141911.000,5509.2589,N,06122.3014,E,1,5,1.23,251.0,M,-11.5,M,,*6A
$GPGSA,A,3,23,05,27,09,,,,,,,,,1.55,1.23,0.94*06
$GLGSA,A,3,69,,,,,,,,,,,,1.55,1.23,0.94*1D
$GPGSV,2,1,07,09,38,163,34,27,34,065,33,05,27,294,29,39,18,221,*7B
$GPGSV,2,2,07,23,13,151,31,28,,,21,30,,,27*45
$GLGSV,2,1,05,78,81,350,,69,50,300,34,79,35,257,,77,31,063,*62
$GLGSV,2,2,05,70,05,341,*54
$GNRMC,141911.000,A,5509.2589,N,06122.3014,E,1.02,140.39,261119,,,A*73
$GNVTG,140.39,T,,M,1.02,N,1.89,K,A*2F
$PSIMONE,U,2,D191126T141912.000,55.154304,61.371702,252.79,2.43,140.48,2,,1.23,1.55,0.94,,8,4,,,,9.3,16.6,[0]*10
$GNGGA,141912.000,5509.2582,N,06122.3021,E,1,5,1.23,252.8,M,-11.5,M,,*6F
$GPGSA,A,3,23,05,27,09,,,,,,,,,1.55,1.23,0.94*06
$GLGSA,A,3,69,,,,,,,,,,,,1.55,1.23,0.94*1D
$GPGSV,2,1,08,09,38,163,34,27,34,065,33,05,27,294,29,39,18,221,*74
$GPGSV,2,2,08,23,13,151,31,28,,,21,30,,,27,07,,,25*4A
$GLGSV,2,1,05,78,81,350,,69,50,300,34,79,35,257,,77,31,063,*62
$GLGSV,2,2,05,70,05,341,*54
$GNRMC,141912.000,A,5509.2582,N,06122.3021,E,1.31,140.48,261119,,,A*7B
$GNVTG,140.48,T,,M,1.31,N,2.43,K,A*2C
$PSIMONE,U,2,D191126T141913.000,55.154290,61.371709,253.77,2.90,144.29,2,,1.23,1.55,0.94,,8,4,,,,9.7,16.2,[0]*14
$GNGGA,141913.000,5509.2574,N,06122.3025,E,1,5,1.23,253.8,M,-11.5,M,,*62
$GPGSA,A,3,23,05,27,09,,,,,,,,,1.55,1.23,0.94*06
$GLGSA,A,3,69,,,,,,,,,,,,1.55,1.23,0.94*1D
$GPGSV,2,1,08,09,38,163,34,27,34,065,33,05,27,294,29,39,18,221,*74
$GPGSV,2,2,08,23,13,151,31,28,,,21,30,,,27,07,,,28*47
$GLGSV,2,1,05,78,81,350,,69,50,300,34,79,35,257,,77,31,063,*62
$GLGSV,2,2,05,70,05,341,*54
$GNRMC,141913.000,A,5509.2574,N,06122.3025,E,1.56,144.29,261119,,,A*75
$GNVTG,144.29,T,,M,1.56,N,2.90,K,A*20
$PSIMONE,U,2,D191126T141914.000,55.154276,61.371716,253.97,3.30,147.26,2,,1.23,1.55,0.94,,8,4,,,,10.1,15.8,[0]*2B
$GNGGA,141914.000,5509.2566,N,06122.3030,E,1,5,1.23,254.0,M,-11.5,M,,*6D
$GPGSA,A,3,23,05,27,09,,,,,,,,,1.55,1.23,0.94*06
$GLGSA,A,3,69,,,,,,,,,,,,1.55,1.23,0.94*1D
$GPGSV,2,1,08,09,38,163,34,27,34,065,33,05,27,294,28,39,18,221,*75
$GPGSV,2,2,08,23,13,151,31,28,,,21,30,,,27,07,,,28*47
$GLGSV,2,1,05,78,81,350,,69,50,300,34,79,35,257,,77,31,063,*62
$GLGSV,2,2,05,70,05,341,*54
$GNRMC,141914.000,A,5509.2566,N,06122.3030,E,1.78,147.26,261119,,,A*75
$GNVTG,147.26,T,,M,1.78,N,3.30,K,A*2B
$PSIMONE,U,2,D191126T141915.000,55.154260,61.371719,254.19,3.92,152.05,2,,1.23,1.55,0.94,,8,4,,,,10.3,15.5,[0]*21
$GNGGA,141915.000,5509.2556,N,06122.3031,E,1,5,1.23,254.2,M,-11.5,M,,*6C
$GPGSA,A,3,23,05,27,09,,,,,,,,,1.55,1.23,0.94*06
$GLGSA,A,3,69,,,,,,,,,,,,1.55,1.23,0.94*1D
$GPGSV,2,1,08,09,38,163,34,27,34,065,33,05,27,294,28,39,18,221,*75
$GPGSV,2,2,08,23,13,151,31,28,,,21,30,,,27,07,,,27*48
$GLGSV,2,1,05,78,81,350,,69,50,300,34,79,35,257,,77,31,063,*62
$GLGSV,2,2,05,70,05,341,*54
$GNRMC,141915.000,A,5509.2556,N,06122.3031,E,2.11,152.05,261119,,,A*7F
$GNVTG,152.05,T,,M,2.11,N,3.92,K,A*2A
$PSIMONE,U,2,D191126T141916.000,55.154273,61.371674,254.80,1.11,168.34,2,,1.23,1.55,0.94,,8,4,,,,8.0,14.6,[0]*10
$GNGGA,141916.000,5509.2564,N,06122.3004,E,1,5,1.23,254.8,M,-11.5,M,,*62
$GPGSA,A,3,23,05,27,09,,,,,,,,,1.55,1.23,0.94*06
$GLGSA,A,3,69,,,,,,,,,,,,1.55,1.23,0.94*1D
$GPGSV,2,1,08,09,38,163,34,27,34,065,33,05,27,294,28,39,18,221,*75
$GPGSV,2,2,08,23,13,151,31,28,,,21,30,,,27,07,,,27*48
$GLGSV,2,1,05,78,81,350,,69,50,300,34,79,35,257,,77,31,063,*62
$GLGSV,2,2,05,70,05,341,*54
$GNRMC,141916.000,A,5509.2564,N,06122.3004,E,0.60,168.34,261119,,,A*74
$GNVTG,168.34,T,,M,0.60,N,1.11,K,A*2C
$PSIMONE,U,2,D191126T141917.000,55.154270,61.371668,254.75,0.75,168.34,2,,1.23,1.55,0.94,,8,4,,,,7.7,14.3,[0]*1B
$GNGGA,141917.000,5509.2562,N,06122.3001,E,1,5,1.23,254.8,M,-11.5,M,,*60
$GPGSA,A,3,23,05,27,09,,,,,,,,,1.55,1.23,0.94*06
$GLGSA,A,3,69,,,,,,,,,,,,1.55,1.23,0.94*1D
$GPGSV,2,1,08,09,38,163,35,27,34,065,33,05,27,294,28,39,18,221,*74
$GPGSV,2,2,08,23,13,151,31,28,,,21,30,,,27,07,,,27*48
$GLGSV,2,1,05,78,81,350,,69,50,300,34,79,35,257,,77,31,063,*62
$GLGSV,2,2,05,70,05,341,*54
$GNRMC,141917.000,A,5509.2562,N,06122.3001,E,0.41,168.34,261119,,,A*75
$GNVTG,168.34,T,,M,0.41,N,0.75,K,A*2C
$PSIMONE,U,2,D191126T141918.000,55.154266,61.371662,254.67,0.66,168.34,2,,1.23,1.55,0.94,,8,4,,,,7.5,14.1,[0]*18
$GNGGA,141918.000,5509.2560,N,06122.2997,E,1,5,1.23,254.7,M,-11.5,M,,*65
$GPGSA,A,3,23,05,27,09,,,,,,,,,1.55,1.23,0.94*06
$GLGSA,A,3,69,,,,,,,,,,,,1.55,1.23,0.94*1D
$GPGSV,2,1,08,09,38,163,35,27,34,065,33,05,27,294,28,39,18,221,*74
$GPGSV,2,2,08,23,13,151,32,28,,,21,30,,,26,07,,,27*4A
$GLGSV,2,1,05,78,81,350,,69,50,300,34,79,35,257,,77,31,063,*62
$GLGSV,2,2,05,70,05,341,*54
$GNRMC,141918.000,A,5509.2560,N,06122.2997,E,0.36,168.34,261119,,,A*7F
$GNVTG,168.34,T,,M,0.36,N,0.66,K,A*2E
$PSIMONE,U,2,D191126T141919.000,55.154264,61.371658,254.43,0.60,168.34,2,,1.23,1.55,0.94,,9,4,,,,7.4,13.8,[0]*1C
$GNGGA,141919.000,5509.2558,N,06122.2995,E,1,5,1.23,254.4,M,-11.5,M,,*6E
$GPGSA,A,3,23,05,27,09,,,,,,,,,1.55,1.23,0.94*06
$GLGSA,A,3,69,,,,,,,,,,,,1.55,1.23,0.94*1D
$GPGSV,2,1,08,09,38,163,34,27,34,065,33,05,27,294,28,39,18,221,25*72
$GPGSV,2,2,08,23,13,151,32,28,,,21,30,,,26,07,,,27*4A
$GLGSV,2,1,05,78,81,350,,69,50,300,34,79,35,257,,77,31,063,*62
$GLGSV,2,2,05,70,05,341,*54
$GNRMC,141919.000,A,5509.2558,N,06122.2995,E,0.00,168.34,261119,,,A*72
$GNVTG,168.34,T,,M,0.00,N,0.00,K,A*2B
$PSIMONE,U,2,D191126T141920.000,55.154261,61.371654,254.63,0.51,168.34,2,,1.23,1.55,0.94,,9,4,,,,7.3,13.6,[0]*16
$GNGGA,141920.000,5509.2557,N,06122.2992,E,1,5,1.23,254.6,M,-11.5,M,,*6E
$GPGSA,A,3,23,05,27,09,,,,,,,,,1.55,1.23,0.94*06
$GLGSA,A,3,69,,,,,,,,,,,,1.55,1.23,0.94*1D
$GPGSV,2,1,08,09,38,163,34,27,34,065,32,05,27,294,28,39,18,221,25*73
$GPGSV,2,2,08,23,13,151,32,28,,,21,30,,,26,07,,,27*4A
$GLGSV,2,1,05,78,81,350,,69,50,300,34,79,35,257,,77,31,063,*62
$GLGSV,2,2,05,70,05,341,*54
$GNRMC,141920.000,A,5509.2557,N,06122.2992,E,0.00,168.34,261119,,,A*70
$GNVTG,168.34,T,,M,0.00,N,0.00,K,A*2B
$PSIMONE,U,2,D191126T141921.000,55.154257,61.371648,254.94,0.50,168.34,2,,1.23,1.55,0.94,,9,4,,,,7.2,13.4,[0]*15
$GNGGA,141921.000,5509.2554,N,06122.2989,E,1,5,1.23,254.9,M,-11.5,M,,*69
$GPGSA,A,3,23,05,27,09,,,,,,,,,1.55,1.23,0.94*06
$GLGSA,A,3,69,,,,,,,,,,,,1.55,1.23,0.94*1D
$GPGSV,2,1,08,09,38,163,34,27,34,064,32,05,27,294,28,39,18,221,25*72
$GPGSV,2,2,08,23,13,151,32,28,,,21,30,,,26,07,,,27*4A
$GLGSV,2,1,05,78,81,350,,69,50,300,34,79,35,257,,77,31,063,*62
$GLGSV,2,2,05,70,05,341,*54
$GNRMC,141921.000,A,5509.2554,N,06122.2989,E,0.00,168.34,261119,,,A*78
$GNVTG,168.34,T,,M,0.00,N,0.00,K,A*2B
$PSIMONE,U,2,D191126T141922.000,55.154257,61.371648,254.94,0.44,168.34,2,,1.23,1.55,0.94,,9,4,,,,7.1,13.2,[0]*16
$GNGGA,141922.000,5509.2554,N,06122.2989,E,1,5,1.23,254.9,M,-11.5,M,,*6A
$GPGSA,A,3,23,05,27,09,,,,,,,,,1.55,1.23,0.94*06
$GLGSA,A,3,69,,,,,,,,,,,,1.55,1.23,0.94*1D
$GPGSV,2,1,08,09,38,163,34,27,34,064,32,05,27,294,28,39,18,221,25*72
$GPGSV,2,2,08,23,13,151,32,28,,,21,30,,,26,07,,,27*4A
$GLGSV,2,1,05,78,81,350,,69,50,300,34,79,35,257,,77,31,063,*62
$GLGSV,2,2,05,70,05,341,*54
$GNRMC,141922.000,A,5509.2554,N,06122.2989,E,0.00,168.34,261119,,,A*7B
$GNVTG,168.34,T,,M,0.00,N,0.00,K,A*2B
$PSIMONE,U,2,D191126T141923.000,55.154257,61.371648,254.94,0.21,168.34,2,,1.23,1.55,0.94,,9,4,,,,7.1,13.0,[0]*16
$GNGGA,141923.000,5509.2554,N,06122.2989,E,1,5,1.23,254.9,M,-11.5,M,,*6B
$GPGSA,A,3,23,05,27,09,,,,,,,,,1.55,1.23,0.94*06
$GLGSA,A,3,69,,,,,,,,,,,,1.55,1.23,0.94*1D
$GPGSV,2,1,08,09,38,163,34,27,34,064,32,05,27,294,28,39,18,221,25*72
$GPGSV,2,2,08,23,13,151,32,28,,,21,30,,,26,07,,,27*4A
$GLGSV,2,1,05,78,81,350,,69,50,300,34,79,35,257,,77,31,063,*62
$GLGSV,2,2,05,70,05,341,*54
$GNRMC,141923.000,A,5509.2554,N,06122.2989,E,0.00,168.34,261119,,,A*7A
$GNVTG,168.34,T,,M,0.00,N,0.00,K,A*2B
$PSIMONE,U,2,D191126T141924.000,55.154257,61.371648,254.94,0.14,168.34,2,,1.23,1.55,0.94,,9,4,,,,7.0,12.8,[0]*1F
$GNGGA,141924.000,5509.2554,N,06122.2989,E,1,5,1.23,254.9,M,-11.5,M,,*6C
$GPGSA,A,3,23,05,27,09,,,,,,,,,1.55,1.23,0.94*06
$GLGSA,A,3,69,,,,,,,,,,,,1.55,1.23,0.94*1D
$GPGSV,2,1,08,09,38,163,35,27,34,064,32,05,27,294,28,39,18,221,25*73
$GPGSV,2,2,08,23,13,151,32,28,,,21,30,,,26,07,,,27*4A
$GLGSV,2,1,05,78,81,350,,69,50,300,34,79,35,257,,77,31,063,*62
$GLGSV,2,2,05,70,05,341,*54
$GNRMC,141924.000,A,5509.2554,N,06122.2989,E,0.00,168.34,261119,,,A*7D
$GNVTG,168.34,T,,M,0.00,N,0.00,K,A*2B
$PSIMONE,U,2,D191126T141925.000,55.154257,61.371648,254.94,0.26,168.34,2,,1.18,1.50,0.93,,9,5,,,,6.9,12.6,[0]*12
$GNGGA,141925.000,5509.2554,N,06122.2989,E,1,6,1.18,254.9,M,-11.5,M,,*66
$GPGSA,A,3,23,05,27,09,30,,,,,,,,1.50,1.18,0.93*0F
$GLGSA,A,3,69,,,,,,,,,,,,1.50,1.18,0.93*17
$GPGSV,2,1,08,30,52,271,26,09,38,163,35,27,34,064,32,05,27,294,28*72
$GPGSV,2,2,08,39,18,221,25,23,13,151,32,28,,,20,07,,,27*79
$GLGSV,2,1,05,78,81,350,,69,50,300,34,79,35,257,,77,31,063,*62
$GLGSV,2,2,05,70,05,341,*54
$GNRMC,141925.000,A,5509.2554,N,06122.2989,E,0.00,168.34,261119,,,A*7C
$GNVTG,168.34,T,,M,0.00,N,0.00,K,A*2B
$PSIMONE,U,2,D191126T141926.000,55.154257,61.371648,254.94,0.36,168.34,2,,1.18,1.50,0.93,,9,5,,,,6.9,12.4,[0]*12
$GNGGA,141926.000,5509.2554,N,06122.2989,E,1,6,1.18,254.9,M,-11.5,M,,*65
$GPGSA,A,3,23,05,27,09,30,,,,,,,,1.50,1.18,0.93*0F
$GLGSA,A,3,69,,,,,,,,,,,,1.50,1.18,0.93*17
$GPGSV,2,1,08,30,52,271,26,09,38,163,36,27,34,064,32,05,27,294,28*71
$GPGSV,2,2,08,37,17,225,,23,13,151,32,28,,,20,07,,,27*7B
$GLGSV,2,1,05,78,81,350,,69,50,300,35,79,35,257,,77,31,063,*63
$GLGSV,2,2,05,70,05,341,*54
$GNRMC,141926.000,A,5509.2554,N,06122.2989,E,0.00,168.34,261119,,,A*7F
$GNVTG,168.34,T,,M,0.00,N,0.00,K,A*2B
$PSIMONE,U,2,D191126T141927.000,55.154257,61.371648,254.94,0.32,168.34,2,,1.18,1.50,0.93,,8,5,,,,6.8,12.2,[0]*11
$GNGGA,141927.000,5509.2554,N,06122.2989,E,1,6,1.18,254.9,M,-11.5,M,,*64
$GPGSA,A,3,23,05,27,09,30,,,,,,,,1.50,1.18,0.93*0F
$GLGSA,A,3,69,,,,,,,,,,,,1.50,1.18,0.93*17
$GPGSV,2,1,08,30,52,271,25,09,38,163,36,27,34,064,32,05,27,294,28*72
$GPGSV,2,2,08,37,17,225,,23,13,151,32,28,,,20,07,,,26*7A
$GLGSV,2,1,05,78,81,350,,69,50,300,35,79,35,257,,77,31,063,*63
$GLGSV,2,2,05,70,05,341,*54
$GNRMC,141927.000,A,5509.2554,N,06122.2989,E,0.00,168.34,261119,,,A*7E
$GNVTG,168.34,T,,M,0.00,N,0.00,K,A*2B
$PSIMONE,U,2,D191126T141928.000,55.154257,61.371648,254.94,0.35,168.34,2,,1.18,1.50,0.93,,8,5,,,,6.8,12.0,[0]*1B
$GNGGA,141928.000,5509.2554,N,06122.2989,E,1,6,1.18,254.9,M,-11.5,M,,*6B
$GPGSA,A,3,23,05,27,09,30,,,,,,,,1.50,1.18,0.93*0F
$GLGSA,A,3,69,,,,,,,,,,,,1.50,1.18,0.93*17
$GPGSV,2,1,08,30,52,271,25,09,38,163,36,27,34,064,32,05,27,294,28*72
$GPGSV,2,2,08,37,17,225,,23,13,151,32,28,,,20,07,,,26*7A
$GLGSV,2,1,05,78,81,350,,69,50,300,35,79,35,257,,77,31,063,*63
$GLGSV,2,2,05,70,05,341,*54
$GNRMC,141928.000,A,5509.2554,N,06122.2989,E,0.00,168.34,261119,,,A*71
$GNVTG,168.34,T,,M,0.00,N,0.00,K,A*2B
$PSIMONE,U,2,D191126T141929.000,55.154257,61.371648,254.94,0.35,168.34,2,,1.18,1.50,0.93,,8,5,,,,6.9,11.8,[0]*10
$GNGGA,141929.000,5509.2554,N,06122.2989,E,1,6,1.18,254.9,M,-11.5,M,,*6A
$GPGSA,A,3,23,05,27,09,30,,,,,,,,1.50,1.18,0.93*0F
$GLGSA,A,3,69,,,,,,,,,,,,1.50,1.18,0.93*17
$GPGSV,2,1,08,30,52,271,25,09,38,163,36,27,34,064,32,05,27,294,28*72
$GPGSV,2,2,08,37,17,225,,23,13,151,32,28,,,20,07,,,26*7A
$GLGSV,2,1,05,78,81,350,,69,50,300,35,79,35,257,,77,31,063,*63
$GLGSV,2,2,05,70,05,341,*54
$GNRMC,141929.000,A,5509.2554,N,06122.2989,E,0.00,168.34,261119,,,A*70
$GNVTG,168.34,T,,M,0.00,N,0.00,K,A*2B
$PSIMONE,U,2,D191126T141930.000,55.154257,61.371648,254.94,0.38,168.34,2,,1.18,1.50,0.93,,8,5,,,,7.2,11.6,[0]*11
$GNGGA,141930.000,5509.2554,N,06122.2989,E,1,6,1.18,254.9,M,-11.5,M,,*62
$GPGSA,A,3,23,05,27,09,30,,,,,,,,1.50,1.18,0.93*0F
$GLGSA,A,3,69,,,,,,,,,,,,1.50,1.18,0.93*17
$GPGSV,2,1,08,30,52,271,25,09,38,163,36,27,34,064,32,05,27,294,28*72
$GPGSV,2,2,08,37,17,225,,23,13,151,32,28,,,20,07,,,25*79
$GLGSV,2,1,05,78,81,350,,69,50,300,35,79,35,257,,77,31,063,*63
$GLGSV,2,2,05,70,05,341,*54
$GNRMC,141930.000,A,5509.2554,N,06122.2989,E,0.00,168.34,261119,,,A*78
$GNVTG,168.34,T,,M,0.00,N,0.00,K,A*2B
$PSIMONE,U,2,D191126T141931.000,55.154257,61.371648,254.94,0.82,168.34,2,,1.18,1.50,0.93,,8,5,,,,8.3,11.5,[0]*1C
$GNGGA,141931.000,5509.2554,N,06122.2989,E,1,6,1.18,254.9,M,-11.5,M,,*63
$GPGSA,A,3,23,05,27,09,30,,,,,,,,1.50,1.18,0.93*0F
$GLGSA,A,3,69,,,,,,,,,,,,1.50,1.18,0.93*17
$GPGSV,2,1,08,30,52,271,25,09,38,163,35,27,34,064,32,05,27,294,28*71
$GPGSV,2,2,08,37,17,225,,23,13,151,32,28,,,20,07,,,25*79
$GLGSV,2,1,05,78,81,350,,69,50,300,34,79,35,257,,77,31,063,*62
$GLGSV,2,2,05,70,05,341,*54
$GNRMC,141931.000,A,5509.2554,N,06122.2989,E,0.00,168.34,261119,,,A*79
$GNVTG,168.34,T,,M,0.00,N,0.00,K,A*2B
$PSIMONE,U,2,D191126T141932.000,55.154257,61.371648,254.94,2.18,325.02,2,,1.18,1.50,0.93,,8,5,,,,10.1,11.3,[0]*2D
$GNGGA,141932.000,5509.2554,N,06122.2989,E,1,6,1.18,254.9,M,-11.5,M,,*60
$GPGSA,A,3,23,05,27,09,30,,,,,,,,1.50,1.18,0.93*0F
$GLGSA,A,3,69,,,,,,,,,,,,1.50,1.18,0.93*17
$GPGSV,2,1,08,30,52,271,25,09,38,163,35,27,34,064,32,05,27,294,28*71
$GPGSV,2,2,08,37,17,225,,23,13,151,32,28,,,20,07,,,25*79
$GLGSV,2,1,05,78,81,350,,69,50,300,35,79,35